51.15.191.81
51.254.49.96
51.254.49.97
51.254.49.98
51.254.49.99
51.254.49.100
51.254.49.101
51.254.49.102
51.254.49.103
51.254.49.104
51.254.49.105
51.254.49.106
51.254.49.107
51.254.49.108
51.254.49.109
51.254.49.110
51.254.49.111
51.255.109.160
51.255.109.161
51.255.109.162
51.255.109.163
51.255.109.164
51.255.109.165
51.255.109.166
51.255.109.167
51.255.109.168
51.255.109.169
51.255.109.170
51.255.109.171
51.255.109.172
51.255.109.173
51.255.109.174
51.255.109.175
62.4.14.198
62.4.14.206
62.210.5.253
62.210.10.77
91.134.185.80
91.134.185.81
91.134.185.82
91.134.185.83
91.134.185.84
91.134.185.85
91.134.185.86
91.134.185.87
91.134.185.88
91.134.185.89
91.134.185.90
91.134.185.91
91.134.185.92
91.134.185.93
91.134.185.94
91.134.185.95
94.23.61.227
163.172.70.242
164.132.183.192
164.132.183.193
164.132.183.194
164.132.183.195
164.132.183.196
164.132.183.197
164.132.183.198
164.132.183.199
164.132.183.200
164.132.183.201
164.132.183.202
164.132.183.203
164.132.183.204
164.132.183.205
164.132.183.206
164.132.183.207
167.114.24.176
167.114.24.177
167.114.24.178
167.114.24.179
167.114.24.180
167.114.24.181
167.114.24.182
167.114.24.183
167.114.24.184
167.114.24.185
167.114.24.186
167.114.24.187
167.114.24.188
167.114.24.189
167.114.24.190
167.114.24.191
172.105.213.140
176.31.117.16
188.165.237.44
188.165.243.144
188.165.248.212
192.99.37.146
192.99.175.176
192.99.175.177
192.99.175.178
192.99.175.179
192.99.175.180
192.99.175.181
192.99.175.182
192.99.175.183
192.99.175.184
192.99.175.185
192.99.175.186
192.99.175.187
192.99.175.188
192.99.175.189
192.99.175.190
192.99.175.191
195.154.62.232
195.154.63.222
198.27.83.98
212.83.146.233
213.32.39.32
213.32.39.33
213.32.39.34
213.32.39.35
213.32.39.36
213.32.39.37
213.32.39.38
213.32.39.39
213.32.39.40
213.32.39.41
213.32.39.42
213.32.39.43
213.32.39.44
213.32.39.45
213.32.39.46
213.32.39.47
91.134.185.89
192.99.175.189
213.32.39.37
51.254.49.108
164.132.183.201
192.99.175.179
91.134.185.81
151.80.91.213
164.132.183.199
146.59.184.2
151.80.91.218
91.134.185.95
192.99.175.177
146.59.184.1
91.134.185.80
164.132.183.194
51.161.50.190
151.80.91.211
91.134.185.90
51.255.109.167
151.80.91.210
164.132.183.203
192.99.175.190
178.32.197.89
192.99.175.180
167.114.24.191
192.99.175.191
192.99.175.178
167.114.24.179
146.59.184.7
147.135.236.175
146.59.184.12
146.59.184.8
178.32.197.93
151.80.91.209
164.132.183.195
51.161.50.189
147.135.236.160
51.254.49.107
192.99.175.176
146.59.184.0
178.32.197.88
51.255.109.160
195.154.62.232
51.255.109.169
51.161.50.188
151.80.91.221
51.15.191.81
213.32.39.42
146.59.184.13
167.114.24.177
91.134.185.82
51.161.50.181
151.80.91.217
164.132.183.205
51.255.109.175
51.255.109.170
51.255.109.166
51.254.49.106
167.114.24.188
51.255.109.171
178.32.197.84
51.255.109.162
91.134.185.85
167.114.24.183
51.255.109.174
192.99.175.182
62.210.5.253
164.132.183.206
213.32.39.45
213.32.39.43
192.99.37.146
167.114.24.176
167.114.24.180
51.161.50.178
147.135.236.168
51.15.181.173
91.134.185.93
192.99.175.181
213.32.39.39
151.80.91.223
192.99.175.184
51.255.109.164
188.165.237.44
213.32.39.36
192.99.175.183
147.135.236.171
213.32.39.34
51.161.50.180
213.32.39.38
195.154.63.222
51.255.109.165
213.32.39.40
51.161.50.177
178.32.197.87
146.59.184.11
91.134.185.94
5.135.173.116
51.255.109.163
51.161.50.182
91.134.185.87
51.161.50.187
62.4.14.198
146.59.184.5
51.254.49.96
192.99.175.187
167.114.24.187
51.161.50.176
91.134.185.83
51.254.49.110
151.80.91.222
51.161.50.183
151.80.91.208
146.59.184.9
178.32.197.94
164.132.183.202
213.32.39.47
51.254.49.102
164.132.183.197
147.135.236.161
51.254.49.98
51.254.49.109
54.38.97.152
147.135.236.167
51.161.50.184
178.32.197.83
51.255.109.168
147.135.236.164
164.132.183.207
51.254.49.99
51.254.49.111
178.32.197.95
167.114.24.190
195.154.61.206
45.33.7.49
147.135.236.165
151.80.91.219
213.32.39.44
188.165.248.212
178.32.197.86
164.132.183.193
213.32.39.33
167.114.24.186
91.134.185.92
178.32.197.85
51.255.109.173
178.32.197.91
62.4.14.206
163.172.64.111
51.254.49.103
167.114.24.178
167.114.24.184
213.32.39.46
51.254.49.97
146.59.184.14
212.83.146.233
164.132.183.204
51.161.50.179
51.255.109.161
213.32.39.35
192.99.175.185
62.210.10.77
147.135.236.169
178.32.197.92
198.27.83.98
151.80.91.215
146.59.184.15
146.59.184.3
178.32.197.80
151.80.91.212
51.161.50.191
91.134.185.84
51.254.49.101
164.132.183.198
37.187.215.247
146.59.184.10
51.254.49.100
146.59.184.6
213.32.39.41
167.114.24.189
167.114.24.185
178.32.197.82
192.99.175.186
176.31.117.16
51.255.109.172
147.135.236.166
147.135.236.162
172.105.213.140
91.134.185.86
151.80.91.214
51.161.50.185
51.161.50.186
178.32.197.90
147.135.236.174
164.132.183.200
147.135.236.170
213.32.39.32
147.135.236.172
147.135.236.163
151.80.91.216
91.134.185.88
151.80.91.220
147.135.236.173
167.114.24.181
51.254.49.105
37.187.215.249
178.32.197.81
146.59.184.4
164.132.183.196
164.132.183.192
167.114.24.182
192.99.175.188
91.134.185.91
51.254.49.104
